"id","name","model_id:id","group_id:id","perm_read","perm_write","perm_create","perm_unlink"
"access_account_invoice_reverse_charge_account_group_account_user","access.account.invoice.reverse_charge.account.group_account_user","model_account_invoice_reverse_charge","account.group_account_user",1,1,1,1
"access_account_invoice_reverse_charge_base_group_user","access.account.invoice.reverse_charge.base.group_user","model_account_invoice_reverse_charge","base.group_user",1,0,0,0
