"id","name","model_id:id","group_id:id","perm_read","perm_write","perm_create","perm_unlink"
"access_sale_order_origin_base_group_user","access.sale.order.origin.base.group_user","model_sale_order_origin","base.group_user",1,0,0,0
"access_sale_order_origin_base_group_sale_manager","access.sale.order.origin.base.group_sale_manager","model_sale_order_origin","base.group_sale_manager",1,0,0,0
"access_sale_order_type_base_group_user","access.sale.order.type.base.group_user","model_sale_order_type","base.group_user",1,0,0,0
"access_sale_order_type_base_group_sale_manager","access.sale.order.type.base.group_sale_manager","model_sale_order_type","base.group_sale_manager",1,1,1,1
