"id","name","model_id:id","group_id:id","perm_read","perm_write","perm_create","perm_unlink"
"access_product_tag_base_group_user","access.product.tag.base.group_user","model_product_tag","base.group_user",1,0,0,0
"access_product_tag_thema_product_group_product_manager","access.product.tag.thema_product.group_product_manager","model_product_tag","thema_product.group_product_manager",1,1,1,1
"access_product_tag_group_base_group_user","access.product.tag.group.base.group_user","model_product_tag_group","base.group_user",1,0,0,0
"access_product_tag_group_thema_product_group_product_manager","access.product.tag.group.thema_product.group_product_manager","model_product_tag_group","thema_product.group_product_manager",1,1,1,1
"access_product_collection_base_group_user","access.product.collection.base.group_user","model_product_collection","base.group_user",1,0,0,0
"access_product_collection_thema_product_group_product_manager","access.product.collection.thema_product.group_product_manager","model_product_collection","thema_product.group_product_manager",1,1,1,1
"access_product_color_base_group_user","access.product.color.base.group_user","model_product_color","base.group_user",1,0,0,0
"access_product_color_thema_product_group_product_manager","access.product.color.thema_product.group_product_manager","model_product_color","thema_product.group_product_manager",1,1,1,1
"access_product_model_base_group_user","access.product.model.base.group_user","model_product_model","base.group_user",1,0,0,0
"access_product_model_thema_product_group_product_manager","access.product.model.thema_product.group_product_manager","model_product_model","thema_product.group_product_manager",1,1,1,1
"access_product_material_base_group_user","access.product.material.base.group_user","model_product_material","base.group_user",1,0,0,0
"access_product_material_thema_product_group_product_manager","access.product.material.thema_product.group_product_manager","model_product_material","thema_product.group_product_manager",1,1,1,1
"access_product_tax_account_group_account_user","access.product.tax.account.group_account_user","model_product_tax","account.group_account_user",1,1,1,1
"access_product_tax_base_group_user","access.product.tax.base.group_user","model_product_tax","base.group_user",1,0,0,0
"access_product_uom_conversion_base_group_user","access.product.uom.conversion.base.group_user","model_product_uom_conversion","base.group_user",1,0,0,0
"access_product_availability_base_group_user","access.product.availability.base.group_user","model_product_availability","base.group_user",1,0,0,0
