"id","name","model_id:id","group_id:id","perm_read","perm_write","perm_create","perm_unlink"
"access_thema_delivery_type_base_group_user","access.thema.delivery.type.base.group_user","model_thema_delivery_type","base.group_user",1,0,0,0

